<mxfile host="65bd71144e" pages="2">
    <diagram id="diagramid" name="Diagram">
        <mxGraphModel dx="1654" dy="802" grid="1" gridSize="10" guides="1" tooltips="1" connect="1" arrows="1" fold="1" page="1" pageScale="1" pageWidth="850" pageHeight="1100" math="0" shadow="0">
            <root>
                <mxCell id="0"/>
                <mxCell id="1" parent="0"/>
                <mxCell id="2" value="AuthUserPool8115E87F" style="outlineConnect=0;fontColor=#B3B3B3;gradientColor=#F54749;gradientDirection=north;fillColor=#C7131F;strokeColor=#ffffff;dashed=0;verticalLabelPosition=bottom;verticalAlign=top;align=center;html=1;fontSize=12;fontStyle=0;aspect=fixed;shape=mxgraph.aws4.resourceIcon;resIcon=mxgraph.aws4.cognito;" parent="1" vertex="1">
                    <mxGeometry x="500" y="375" width="50" height="50" as="geometry"/>
                </mxCell>
                <mxCell id="4" value="AuthUserPoolClient0AA456E4" style="outlineConnect=0;fontColor=#B3B3B3;gradientColor=#F54749;gradientDirection=north;fillColor=#C7131F;strokeColor=#ffffff;dashed=0;verticalLabelPosition=bottom;verticalAlign=top;align=center;html=1;fontSize=12;fontStyle=0;aspect=fixed;shape=mxgraph.aws4.resourceIcon;resIcon=mxgraph.aws4.cognito;" parent="1" vertex="1">
                    <mxGeometry x="250" y="300" width="50" height="50" as="geometry"/>
                </mxCell>
                <mxCell id="5" value="AuthIdentityPool12DFB5E1" style="outlineConnect=0;fontColor=#B3B3B3;gradientColor=#F54749;gradientDirection=north;fillColor=#C7131F;strokeColor=#ffffff;dashed=0;verticalLabelPosition=bottom;verticalAlign=top;align=center;html=1;fontSize=12;fontStyle=0;aspect=fixed;shape=mxgraph.aws4.resourceIcon;resIcon=mxgraph.aws4.cognito;" parent="1" vertex="1">
                    <mxGeometry y="325" width="50" height="50" as="geometry"/>
                </mxCell>
                <mxCell id="11" value="UsersTable695FA693" style="outlineConnect=0;fontColor=#B3B3B3;gradientColor=#4D72F3;gradientDirection=north;fillColor=#3334B9;strokeColor=#ffffff;dashed=0;verticalLabelPosition=bottom;verticalAlign=top;align=center;html=1;fontSize=12;fontStyle=0;aspect=fixed;shape=mxgraph.aws4.resourceIcon;resIcon=mxgraph.aws4.dynamodb;" parent="1" vertex="1">
                    <mxGeometry x="1000" y="450" width="50" height="50" as="geometry"/>
                </mxCell>
                <mxCell id="45" style="edgeStyle=orthogonalEdgeStyle;rounded=0;orthogonalLoop=1;jettySize=auto;html=1;" parent="1" target="23" edge="1">
                    <mxGeometry relative="1" as="geometry">
                        <mxPoint x="-160" y="449.9999999999998" as="sourcePoint"/>
                    </mxGeometry>
                </mxCell>
                <mxCell id="46" style="edgeStyle=orthogonalEdgeStyle;rounded=0;orthogonalLoop=1;jettySize=auto;html=1;" parent="1" target="14" edge="1">
                    <mxGeometry relative="1" as="geometry">
                        <mxPoint x="-185" y="424.9999999999998" as="sourcePoint"/>
                    </mxGeometry>
                </mxCell>
                <mxCell id="47" style="edgeStyle=orthogonalEdgeStyle;rounded=0;orthogonalLoop=1;jettySize=auto;html=1;" parent="1" target="17" edge="1">
                    <mxGeometry relative="1" as="geometry">
                        <mxPoint x="-185" y="424.9999999999998" as="sourcePoint"/>
                        <Array as="points">
                            <mxPoint x="-185" y="250"/>
                            <mxPoint x="25" y="250"/>
                        </Array>
                    </mxGeometry>
                </mxCell>
                <mxCell id="48" style="edgeStyle=orthogonalEdgeStyle;rounded=0;orthogonalLoop=1;jettySize=auto;html=1;" parent="1" target="29" edge="1">
                    <mxGeometry relative="1" as="geometry">
                        <mxPoint x="-185" y="474.9999999999998" as="sourcePoint"/>
                        <Array as="points">
                            <mxPoint x="-185" y="550"/>
                        </Array>
                    </mxGeometry>
                </mxCell>
                <mxCell id="49" style="edgeStyle=orthogonalEdgeStyle;rounded=0;orthogonalLoop=1;jettySize=auto;html=1;" parent="1" target="35" edge="1">
                    <mxGeometry relative="1" as="geometry">
                        <mxPoint x="-185" y="474.9999999999998" as="sourcePoint"/>
                        <Array as="points">
                            <mxPoint x="-185" y="650"/>
                        </Array>
                    </mxGeometry>
                </mxCell>
                <mxCell id="14" value="AuthApiLogGroup1DC27BD8" style="outlineConnect=0;fontColor=#B3B3B3;gradientColor=#F34482;gradientDirection=north;fillColor=#BC1356;strokeColor=#ffffff;dashed=0;verticalLabelPosition=bottom;verticalAlign=top;align=center;html=1;fontSize=12;fontStyle=0;aspect=fixed;shape=mxgraph.aws4.resourceIcon;resIcon=mxgraph.aws4.cloudwatch;" parent="1" vertex="1">
                    <mxGeometry x="-210" y="80" width="50" height="50" as="geometry"/>
                </mxCell>
                <mxCell id="17" value="AuthApiLambdaGETuser996877FE" style="outlineConnect=0;fontColor=#B3B3B3;gradientColor=#F78E04;gradientDirection=north;fillColor=#D05C17;strokeColor=#ffffff;dashed=0;verticalLabelPosition=bottom;verticalAlign=top;align=center;html=1;fontSize=12;fontStyle=0;aspect=fixed;shape=mxgraph.aws4.resourceIcon;resIcon=mxgraph.aws4.lambda;" parent="1" vertex="1">
                    <mxGeometry y="225" width="50" height="50" as="geometry"/>
                </mxCell>
                <mxCell id="23" value="AuthApiLambdaPOSTlogin2A405894" style="outlineConnect=0;fontColor=#B3B3B3;gradientColor=#F78E04;gradientDirection=north;fillColor=#D05C17;strokeColor=#ffffff;dashed=0;verticalLabelPosition=bottom;verticalAlign=top;align=center;html=1;fontSize=12;fontStyle=0;aspect=fixed;shape=mxgraph.aws4.resourceIcon;resIcon=mxgraph.aws4.lambda;" parent="1" vertex="1">
                    <mxGeometry y="425" width="50" height="50" as="geometry"/>
                </mxCell>
                <mxCell id="29" value="AuthApiLambdaPOSTsignupD6F0947F" style="outlineConnect=0;fontColor=#B3B3B3;gradientColor=#F78E04;gradientDirection=north;fillColor=#D05C17;strokeColor=#ffffff;dashed=0;verticalLabelPosition=bottom;verticalAlign=top;align=center;html=1;fontSize=12;fontStyle=0;aspect=fixed;shape=mxgraph.aws4.resourceIcon;resIcon=mxgraph.aws4.lambda;" parent="1" vertex="1">
                    <mxGeometry y="525" width="50" height="50" as="geometry"/>
                </mxCell>
                <mxCell id="35" value="AuthApiLambdaPOSTsignupconfirmFD9F9EC9" style="outlineConnect=0;fontColor=#B3B3B3;gradientColor=#F78E04;gradientDirection=north;fillColor=#D05C17;strokeColor=#ffffff;dashed=0;verticalLabelPosition=bottom;verticalAlign=top;align=center;html=1;fontSize=12;fontStyle=0;aspect=fixed;shape=mxgraph.aws4.resourceIcon;resIcon=mxgraph.aws4.lambda;" parent="1" vertex="1">
                    <mxGeometry y="625" width="50" height="50" as="geometry"/>
                </mxCell>
                <mxCell id="41" value="PreSignUpFn7227C88E" style="outlineConnect=0;fontColor=#B3B3B3;gradientColor=#F78E04;gradientDirection=north;fillColor=#D05C17;strokeColor=#ffffff;dashed=0;verticalLabelPosition=bottom;verticalAlign=top;align=center;html=1;fontSize=12;fontStyle=0;aspect=fixed;shape=mxgraph.aws4.resourceIcon;resIcon=mxgraph.aws4.lambda;" parent="1" vertex="1">
                    <mxGeometry x="750" y="375" width="50" height="50" as="geometry"/>
                </mxCell>
                <mxCell id="PreSignUpFn7227C88E|AuthUserPool8115E87F" value="PreSignUp" style="edgeStyle=orthogonalEdgeStyle;rounded=1;orthogonalLoop=1;jettySize=auto;html=1;labelBackgroundColor=none;fontColor=#EA6B66;noEdgeStyle=1;orthogonal=1;" parent="1" source="2" target="41" edge="1">
                    <mxGeometry relative="1" as="geometry">
                        <Array as="points">
                            <mxPoint x="562" y="400"/>
                            <mxPoint x="738" y="400"/>
                        </Array>
                    </mxGeometry>
                </mxCell>
                <mxCell id="AuthUserPool8115E87F|AuthUserPoolClient0AA456E4" value="UserPoolId" style="edgeStyle=orthogonalEdgeStyle;rounded=1;orthogonalLoop=1;jettySize=auto;html=1;labelBackgroundColor=none;fontColor=#EA6B66;noEdgeStyle=1;orthogonal=1;" parent="1" source="4" target="2" edge="1">
                    <mxGeometry relative="1" as="geometry">
                        <Array as="points">
                            <mxPoint x="312" y="325"/>
                            <mxPoint x="484" y="392.8571428571429"/>
                        </Array>
                    </mxGeometry>
                </mxCell>
                <mxCell id="AuthUserPoolClient0AA456E4|AuthIdentityPool12DFB5E1" value="ClientId" style="edgeStyle=orthogonalEdgeStyle;rounded=1;orthogonalLoop=1;jettySize=auto;html=1;labelBackgroundColor=none;fontColor=#EA6B66;noEdgeStyle=1;orthogonal=1;" parent="1" source="5" target="4" edge="1">
                    <mxGeometry relative="1" as="geometry">
                        <Array as="points">
                            <mxPoint x="62" y="360"/>
                            <mxPoint x="236" y="317"/>
                        </Array>
                    </mxGeometry>
                </mxCell>
                <mxCell id="AuthUserPool8115E87F|AuthIdentityPool12DFB5E1" value="ProviderName" style="edgeStyle=orthogonalEdgeStyle;rounded=1;orthogonalLoop=1;jettySize=auto;html=1;labelBackgroundColor=none;fontColor=#EA6B66;noEdgeStyle=1;orthogonal=1;" parent="1" source="5" target="2" edge="1">
                    <mxGeometry relative="1" as="geometry">
                        <Array as="points">
                            <mxPoint x="62" y="340"/>
                            <mxPoint x="150" y="200"/>
                            <mxPoint x="400" y="200"/>
                            <mxPoint x="488" y="378.57142857142856"/>
                        </Array>
                    </mxGeometry>
                </mxCell>
                <mxCell id="UsersTable695FA693|AuthApiLambdaGETuser996877FE" value="Variable" style="edgeStyle=orthogonalEdgeStyle;rounded=1;orthogonalLoop=1;jettySize=auto;html=1;labelBackgroundColor=none;fontColor=#EA6B66;noEdgeStyle=1;orthogonal=1;" parent="1" source="17" target="11" edge="1">
                    <mxGeometry relative="1" as="geometry">
                        <Array as="points">
                            <mxPoint x="62" y="236.66666666666666"/>
                            <mxPoint x="150" y="150"/>
                            <mxPoint x="400" y="150"/>
                            <mxPoint x="400" y="150"/>
                            <mxPoint x="650" y="150"/>
                            <mxPoint x="650" y="150"/>
                            <mxPoint x="900" y="150"/>
                            <mxPoint x="988" y="459"/>
                        </Array>
                    </mxGeometry>
                </mxCell>
                <mxCell id="AuthUserPool8115E87F|AuthApiLambdaGETuser996877FE" value="Variable" style="edgeStyle=orthogonalEdgeStyle;rounded=1;orthogonalLoop=1;jettySize=auto;html=1;labelBackgroundColor=none;fontColor=#EA6B66;noEdgeStyle=1;orthogonal=1;" parent="1" source="17" target="2" edge="1">
                    <mxGeometry relative="1" as="geometry">
                        <Array as="points">
                            <mxPoint x="64" y="250"/>
                            <mxPoint x="150" y="250"/>
                            <mxPoint x="400" y="250"/>
                            <mxPoint x="486" y="385.7142857142857"/>
                        </Array>
                    </mxGeometry>
                </mxCell>
                <mxCell id="AuthUserPoolClient0AA456E4|AuthApiLambdaGETuser996877FE" value="Variable" style="edgeStyle=orthogonalEdgeStyle;rounded=1;orthogonalLoop=1;jettySize=auto;html=1;labelBackgroundColor=none;fontColor=#EA6B66;noEdgeStyle=1;orthogonal=1;" parent="1" source="17" target="4" edge="1">
                    <mxGeometry relative="1" as="geometry">
                        <Array as="points">
                            <mxPoint x="62" y="263.3333333333333"/>
                            <mxPoint x="238" y="309"/>
                        </Array>
                    </mxGeometry>
                </mxCell>
                <mxCell id="UsersTable695FA693|AuthApiLambdaPOSTlogin2A405894" value="Variable" style="edgeStyle=orthogonalEdgeStyle;rounded=1;orthogonalLoop=1;jettySize=auto;html=1;labelBackgroundColor=none;fontColor=#EA6B66;noEdgeStyle=1;orthogonal=1;" parent="1" source="23" target="11" edge="1">
                    <mxGeometry relative="1" as="geometry">
                        <Array as="points">
                            <mxPoint x="62" y="463.3333333333333"/>
                            <mxPoint x="150" y="650"/>
                            <mxPoint x="400" y="650"/>
                            <mxPoint x="400" y="650"/>
                            <mxPoint x="650" y="650"/>
                            <mxPoint x="650" y="650"/>
                            <mxPoint x="900" y="650"/>
                            <mxPoint x="984" y="475"/>
                        </Array>
                    </mxGeometry>
                </mxCell>
                <mxCell id="AuthUserPool8115E87F|AuthApiLambdaPOSTlogin2A405894" value="Variable" style="edgeStyle=orthogonalEdgeStyle;rounded=1;orthogonalLoop=1;jettySize=auto;html=1;labelBackgroundColor=none;fontColor=#EA6B66;noEdgeStyle=1;orthogonal=1;" parent="1" source="23" target="2" edge="1">
                    <mxGeometry relative="1" as="geometry">
                        <Array as="points">
                            <mxPoint x="64" y="450"/>
                            <mxPoint x="150" y="400"/>
                            <mxPoint x="400" y="400"/>
                            <mxPoint x="482" y="400.00000000000006"/>
                        </Array>
                    </mxGeometry>
                </mxCell>
                <mxCell id="AuthUserPoolClient0AA456E4|AuthApiLambdaPOSTlogin2A405894" value="Variable" style="edgeStyle=orthogonalEdgeStyle;rounded=1;orthogonalLoop=1;jettySize=auto;html=1;labelBackgroundColor=none;fontColor=#EA6B66;noEdgeStyle=1;orthogonal=1;" parent="1" source="23" target="4" edge="1">
                    <mxGeometry relative="1" as="geometry">
                        <Array as="points">
                            <mxPoint x="62" y="436.6666666666667"/>
                            <mxPoint x="234" y="325"/>
                        </Array>
                    </mxGeometry>
                </mxCell>
                <mxCell id="UsersTable695FA693|AuthApiLambdaPOSTsignupD6F0947F" value="Variable" style="edgeStyle=orthogonalEdgeStyle;rounded=1;orthogonalLoop=1;jettySize=auto;html=1;labelBackgroundColor=none;fontColor=#EA6B66;noEdgeStyle=1;orthogonal=1;" parent="1" source="29" target="11" edge="1">
                    <mxGeometry relative="1" as="geometry">
                        <Array as="points">
                            <mxPoint x="62" y="563.3333333333334"/>
                            <mxPoint x="150" y="700"/>
                            <mxPoint x="400" y="700"/>
                            <mxPoint x="400" y="700"/>
                            <mxPoint x="650" y="700"/>
                            <mxPoint x="650" y="700"/>
                            <mxPoint x="900" y="700"/>
                            <mxPoint x="986" y="483"/>
                        </Array>
                    </mxGeometry>
                </mxCell>
                <mxCell id="AuthUserPool8115E87F|AuthApiLambdaPOSTsignupD6F0947F" value="Variable" style="edgeStyle=orthogonalEdgeStyle;rounded=1;orthogonalLoop=1;jettySize=auto;html=1;labelBackgroundColor=none;fontColor=#EA6B66;noEdgeStyle=1;orthogonal=1;" parent="1" source="29" target="2" edge="1">
                    <mxGeometry relative="1" as="geometry">
                        <Array as="points">
                            <mxPoint x="64" y="550"/>
                            <mxPoint x="150" y="450"/>
                            <mxPoint x="400" y="450"/>
                            <mxPoint x="484" y="407.1428571428572"/>
                        </Array>
                    </mxGeometry>
                </mxCell>
                <mxCell id="AuthUserPoolClient0AA456E4|AuthApiLambdaPOSTsignupD6F0947F" value="Variable" style="edgeStyle=orthogonalEdgeStyle;rounded=1;orthogonalLoop=1;jettySize=auto;html=1;labelBackgroundColor=none;fontColor=#EA6B66;noEdgeStyle=1;orthogonal=1;" parent="1" source="29" target="4" edge="1">
                    <mxGeometry relative="1" as="geometry">
                        <Array as="points">
                            <mxPoint x="62" y="536.6666666666666"/>
                            <mxPoint x="236" y="333"/>
                        </Array>
                    </mxGeometry>
                </mxCell>
                <mxCell id="UsersTable695FA693|AuthApiLambdaPOSTsignupconfirmFD9F9EC9" value="Variable" style="edgeStyle=orthogonalEdgeStyle;rounded=1;orthogonalLoop=1;jettySize=auto;html=1;labelBackgroundColor=none;fontColor=#EA6B66;noEdgeStyle=1;orthogonal=1;" parent="1" source="35" target="11" edge="1">
                    <mxGeometry relative="1" as="geometry">
                        <Array as="points">
                            <mxPoint x="62" y="663.3333333333334"/>
                            <mxPoint x="150" y="750"/>
                            <mxPoint x="400" y="750"/>
                            <mxPoint x="400" y="750"/>
                            <mxPoint x="650" y="750"/>
                            <mxPoint x="650" y="750"/>
                            <mxPoint x="900" y="750"/>
                            <mxPoint x="988" y="491"/>
                        </Array>
                    </mxGeometry>
                </mxCell>
                <mxCell id="AuthUserPool8115E87F|AuthApiLambdaPOSTsignupconfirmFD9F9EC9" value="Variable" style="edgeStyle=orthogonalEdgeStyle;rounded=1;orthogonalLoop=1;jettySize=auto;html=1;labelBackgroundColor=none;fontColor=#EA6B66;noEdgeStyle=1;orthogonal=1;" parent="1" source="35" target="2" edge="1">
                    <mxGeometry relative="1" as="geometry">
                        <Array as="points">
                            <mxPoint x="64" y="650"/>
                            <mxPoint x="150" y="500"/>
                            <mxPoint x="400" y="500"/>
                            <mxPoint x="486" y="414.2857142857144"/>
                        </Array>
                    </mxGeometry>
                </mxCell>
                <mxCell id="AuthUserPoolClient0AA456E4|AuthApiLambdaPOSTsignupconfirmFD9F9EC9" value="Variable" style="edgeStyle=orthogonalEdgeStyle;rounded=1;orthogonalLoop=1;jettySize=auto;html=1;labelBackgroundColor=none;fontColor=#EA6B66;noEdgeStyle=1;orthogonal=1;" parent="1" source="35" target="4" edge="1">
                    <mxGeometry relative="1" as="geometry">
                        <Array as="points">
                            <mxPoint x="62" y="636.6666666666666"/>
                            <mxPoint x="238" y="341"/>
                        </Array>
                    </mxGeometry>
                </mxCell>
                <mxCell id="UsersTable695FA693|PreSignUpFn7227C88E" value="Variable" style="edgeStyle=orthogonalEdgeStyle;rounded=1;orthogonalLoop=1;jettySize=auto;html=1;labelBackgroundColor=none;fontColor=#EA6B66;noEdgeStyle=1;orthogonal=1;" parent="1" source="41" target="11" edge="1">
                    <mxGeometry relative="1" as="geometry">
                        <Array as="points">
                            <mxPoint x="812" y="400"/>
                            <mxPoint x="986" y="467"/>
                        </Array>
                    </mxGeometry>
                </mxCell>
                <mxCell id="54" value="&lt;span style=&quot;color: rgb(179 , 179 , 179)&quot;&gt;AuthApiA9B2B641&lt;/span&gt;" style="points=[[0,0,0],[0.25,0,0],[0.5,0,0],[0.75,0,0],[1,0,0],[0,1,0],[0.25,1,0],[0.5,1,0],[0.75,1,0],[1,1,0],[0,0.25,0],[0,0.5,0],[0,0.75,0],[1,0.25,0],[1,0.5,0],[1,0.75,0]];outlineConnect=0;fontColor=#232F3E;gradientColor=#945DF2;gradientDirection=north;fillColor=#5A30B5;strokeColor=#ffffff;dashed=0;verticalLabelPosition=bottom;verticalAlign=top;align=center;html=1;fontSize=12;fontStyle=0;aspect=fixed;shape=mxgraph.aws4.resourceIcon;resIcon=mxgraph.aws4.api_gateway;" parent="1" vertex="1">
                    <mxGeometry x="-210" y="425" width="50" height="50" as="geometry"/>
                </mxCell>
            </root>
        </mxGraphModel>
    </diagram>
</mxfile>
